{
  "development": {
    "localBaseUrl": "https://localhost:8080",
    "usePublicKey": false,
    "watch": false,
    "port": 8080,
    "maxTokenAge": 192800,
    "store": {
      "type": "memory",
      "adapter": "jugglingdb",
      "database": "store.db"
    },
    "validatePublicKey": false
  },
  "production": {
    "usePublicKey": false,
    "port": "$PORT",
    "maxTokenAge": 192800,
    "localBaseUrl": "$BASE_URL",
    "store": {
      "type": "postgres-atlassian",
      "url": "$PG_HIPCHAT_POLLY_URL"
    },
    "whitelist": [
      "*.hipchat.com",
      "*.hipch.at"
    ],
    "validatePublicKey": false
  }
}